vhdl-2/dump.vcd
$date
  Sat Sep 29 10:40:57 2012
$end
$version
  GHDL v0
$end
$timescale
  1 fs
$end
$var reg 1 ! wclk $end
$var reg 1 " we $end
$var reg 1 # lwe $end
$var reg 1 $ done $end
$var integer 32 % counter $end
$enddefinitions $end
#0
1!
0"
0#
0$
b0 %
#5000000
0!
1"
b1 %
#10000000
1!
1#
#15000000
0!
b10 %
#20000000
1!
#25000000
0!
0"
b11 %
#30000000
1!
0#
#35000000
0!
b100 %
#40000000
1!
#45000000
0!
1"
b101 %
#50000000
1!
1#
#55000000
0!
0"
b110 %
#60000000
1!
0#
#65000000
0!
b111 %
#70000000
1!
#75000000
0!
b1000 %
#80000000
1!
#85000000
0!
b1001 %
#90000000
1!
#95000000
0!
b1010 %
#100000000
1!
#105000000
0!
b1011 %
#110000000
1!
#115000000
0!
b1100 %
#120000000
1!
#125000000
0!
b1101 %
#130000000
1!
#135000000
0!
b1110 %
#140000000
1!
#145000000
0!
b1111 %
#150000000
1!
#155000000
0!
b10000 %
#160000000
1!
#165000000
0!
b10001 %
#170000000
1!
#175000000
0!
b10010 %
#180000000
1!
#185000000
0!
b10011 %
#190000000
1!
#195000000
0!
1$
b10100 %
